{
	"modeluuid": "",
	"stateCounter": 5,
	"actionCounter": 9,
	"parameterCounter": 0,
	"ePFhost": "",
	"ePFsuite": "",
	"suitePath": "",
	"path": "",
	"verbosity": 27392,
	"snippetFull": false,
	"allSnippetsDisabled": false,
	"runCleanupAfterAbort": false,
	"allowGlobalActionsInInitialStates": true,
	"performanceTimings": false,
	"elements": [{
		"name": "26_pms_master_wp_type_WorkPlanTypes",
		"type": "Root",
		"id": 0,
		"parameters": [{
			"id": 1,
			"name": "",
			"type": "",
			"initial": "",
			"random": "",
			"ranges": []
		}]
	}, {
		"name": "Exit",
		"type": "State",
		"id": 1,
		"parentId": 0,
		"stateType": "Normal",
		"invisible": true,
		"sortingType": "Z",
		"parameters": [{
			"id": 0,
			"name": "",
			"type": "",
			"random": "",
			"ranges": [],
			"initial": ""
		}]
	}, {
		"name": "Error",
		"type": "State",
		"id": 2,
		"parentId": 0,
		"stateType": "Exception",
		"invisible": true,
		"sortingType": "X",
		"parameters": [{
			"id": 0,
			"name": "",
			"type": "",
			"random": "",
			"ranges": [],
			"initial": ""
		}]
	}, {
		"name": "Cleanup",
		"type": "State",
		"id": 3,
		"parentId": 0,
		"stateType": "Cleanup",
		"invisible": true,
		"sortingType": "Y",
		"parameters": [{
			"id": 0,
			"name": "",
			"type": "",
			"random": "",
			"ranges": [],
			"initial": ""
		}]
	}, {
		"name": "Initial",
		"type": "State",
		"id": 4,
		"parentId": 0,
		"dx": 20,
		"dy": 20,
		"textX": 20,
		"textY": 25,
		"shapeWidth": 200,
		"shapeHeight": 100,
		"stateType": "Start",
		"invisible": false,
		"sortingType": "A",
		"parameters": [{
			"id": 0,
			"name": "",
			"type": "",
			"random": "",
			"ranges": [],
			"initial": ""
		}]
	}, {
		"name": "26_pms_master_wp_type_WorkPlanTypes Menu",
		"type": "State",
		"id": 5,
		"parentId": 0,
		"dx": 320,
		"dy": 20,
		"textX": 20,
		"textY": 25,
		"shapeWidth": 220,
		"shapeHeight": 220,
		"stateType": "Normal",
		"invisible": false,
		"sortingType": "B",
		"parameters": [{
			"id": 0,
			"name": "",
			"type": "",
			"random": "",
			"ranges": [],
			"initial": ""
		}]
	}, {
		"name": "Setup and Confirm",
		"type": "Action",
		"id": 6,
		"parentId": 4,
		"dx": 20,
		"dy": 40,
		"textX": 15,
		"textY": 22,
		"shapeWidth": 160,
		"shapeHeight": 40,
		"actionType": "Normal",
		"sortingType": "C",
		"parameters": [{
			"id": 0,
			"name": "",
			"type": "",
			"random": "",
			"ranges": [],
			"initial": ""
		}],
		"connectedStates": [{
			"stateRef": 5
		}],
		"callLimit": 0,
		"weight": 100}, {
		"name": "Insert",
		"type": "Action",
		"id": 7,
		"parentId": 5,
		"dx": 20,
		"dy": 50,
		"textX": 15,
		"textY": 22,
		"shapeWidth": 80,
		"shapeHeight": 40,
		"actionType": "Normal",
		"sortingType": "C",
		"parameters": [{
			"id": 0,
			"name": "",
			"type": "",
			"random": "",
			"ranges": [],
			"initial": ""
		}],
		"callLimit": 0,
		"weight": 100}, {
		"name": "Delete",
		"type": "Action",
		"id": 8,
		"parentId": 5,
		"dx": 20,
		"dy": 80,
		"textX": 15,
		"textY": 22,
		"shapeWidth": 80,
		"shapeHeight": 40,
		"actionType": "Normal",
		"sortingType": "C",
		"parameters": [{
			"id": 0,
			"name": "",
			"type": "",
			"random": "",
			"ranges": [],
			"initial": ""
		}],
		"callLimit": 0,
		"weight": 100}, {
		"name": "Insert Like",
		"type": "Action",
		"id": 9,
		"parentId": 5,
		"dx": 20,
		"dy": 110,
		"textX": 15,
		"textY": 22,
		"shapeWidth": 80,
		"shapeHeight": 40,
		"actionType": "Normal",
		"sortingType": "C",
		"parameters": [{
			"id": 0,
			"name": "",
			"type": "",
			"random": "",
			"ranges": [],
			"initial": ""
		}],
		"callLimit": 0,
		"weight": 100}, {
		"name": "Sort",
		"type": "Action",
		"id": 10,
		"parentId": 5,
		"dx": 20,
		"dy": 140,
		"textX": 15,
		"textY": 22,
		"shapeWidth": 80,
		"shapeHeight": 40,
		"actionType": "Normal",
		"sortingType": "C",
		"parameters": [{
			"id": 0,
			"name": "",
			"type": "",
			"random": "",
			"ranges": [],
			"initial": ""
		}],
		"callLimit": 0,
		"weight": 100}, {
		"name": "Find",
		"type": "Action",
		"id": 11,
		"parentId": 5,
		"dx": 20,
		"dy": 170,
		"textX": 15,
		"textY": 22,
		"shapeWidth": 80,
		"shapeHeight": 40,
		"actionType": "Normal",
		"sortingType": "C",
		"parameters": [{
			"id": 0,
			"name": "",
			"type": "",
			"random": "",
			"ranges": [],
			"initial": ""
		}],
		"callLimit": 0,
		"weight": 100}, {
		"name": "Export Data",
		"type": "Action",
		"id": 12,
		"parentId": 5,
		"dx": 20,
		"dy": 200,
		"textX": 15,
		"textY": 22,
		"shapeWidth": 80,
		"shapeHeight": 40,
		"actionType": "Normal",
		"sortingType": "C",
		"parameters": [{
			"id": 0,
			"name": "",
			"type": "",
			"random": "",
			"ranges": [],
			"initial": ""
		}],
		"callLimit": 0,
		"weight": 100}, {
		"name": "Copy Rows to Clipboard CSV",
		"type": "Action",
		"id": 13,
		"parentId": 5,
		"dx": 20,
		"dy": 230,
		"textX": 15,
		"textY": 22,
		"shapeWidth": 80,
		"shapeHeight": 40,
		"actionType": "Normal",
		"sortingType": "C",
		"parameters": [{
			"id": 0,
			"name": "",
			"type": "",
			"random": "",
			"ranges": [],
			"initial": ""
		}],
		"callLimit": 0,
		"weight": 100}, {
		"name": "Copy All to Clipboard CSV",
		"type": "Action",
		"id": 14,
		"parentId": 5,
		"dx": 20,
		"dy": 260,
		"textX": 15,
		"textY": 22,
		"shapeWidth": 80,
		"shapeHeight": 40,
		"actionType": "Normal",
		"sortingType": "C",
		"parameters": [{
			"id": 0,
			"name": "",
			"type": "",
			"random": "",
			"ranges": [],
			"initial": ""
		}],
		"callLimit": 0,
		"weight": 100}],
	"testcases": [],
	"performanceTests": [],
	"tags": [{
		"name": "",
		"values": "",
		"id": 1
	}],
	"version": "5.2.0-5"
}