﻿2021-08-13 14:59:40.015 -0500	START		Running Master.script
2021-08-13 14:59:40.128 -0500	Log		The Model Prefix is 26_network_master	20	on_master	Master.script
2021-08-13 14:59:46.230 -0500	set		SEARCHRECTANGLE = []	7	on_initial	Initial.script
2021-08-13 14:59:46.236 -0500	Log		Initial	9	on_initial	Initial.script
2021-08-13 14:59:46.283 -0500	typetext		[controlKey]w	11	on_initial	Initial.script
2021-08-13 14:59:46.287 -0500	Log		Launch Chrome	17	on_initial	Initial.script
2021-08-13 14:59:47.024 -0500	typetext		[windowsKey]r	18	on_initial	Initial.script
2021-08-13 14:59:48.476 -0500	typetext		Chrome --start-maximized	19	on_initial	Initial.script
2021-08-13 14:59:49.221 -0500	typetext		[returnKey]	20	on_initial	Initial.script
2021-08-13 14:59:54.376 -0500	imagefound	MaximizeChrome	Unable to Find Image MaximizeChrome	22	on_initial	Initial.script
2021-08-13 14:59:54.419 -0500	waitfor	ChromeHasLoaded	found at (81, 55)	1	on_overridecommand	C:/Program Files/Eggplant/Eggplant.app/Resources/EggplantCommon.suite/Scripts/Omega13.script
2021-08-13 15:00:00.214 -0500	typetext		https://urldefense.com/v3/__https://demo.agileassets.net/APPSTORE_DEMO/__;!!I5pVk4LIGAfnvw!1cHC21Y-x8ZlDqLhXE4Jnpa6gbpPX2zgXmvYAIwfbr8_v0j3DmeidWkbbwtRpw_l_SA$[return]	32	on_initial	Initial.script
2021-08-13 15:00:00.811 -0500	waitfor	AgilePageHasLoaded	found at (955, 573)	1	on_overridecommand	C:/Program Files/Eggplant/Eggplant.app/Resources/EggplantCommon.suite/Scripts/Omega13.script
2021-08-13 15:00:00.903 -0500	set		SEARCHRECTANGLE = [746,215,1184,310]	36	on_initial	Initial.script
2021-08-13 15:00:01.023 -0500	imagefound	(TEXT:"EGGPLANTPOV")	found at (868, 280)	38	on_initial	Initial.script
2021-08-13 15:00:01.029 -0500	Log		It's fiilled out!	39	on_initial	Initial.script
2021-08-13 15:00:01.033 -0500	set		SEARCHRECTANGLE = []	46	on_initial	Initial.script
2021-08-13 15:00:01.037 -0500	Log		eggplant	49	on_initial	Initial.script
2021-08-13 15:00:01.342 -0500	typetext		eggplant	50	on_initial	Initial.script
2021-08-13 15:00:02.083 -0500	typetext		[tab]	52	on_initial	Initial.script
2021-08-13 15:00:03.030 -0500	typetext		eggplant	54	on_initial	Initial.script
2021-08-13 15:00:03.766 -0500	typetext		[return]	56	on_initial	Initial.script
2021-08-13 15:00:05.638 -0500	click	Submit	at (956, 532)	1	on_overridecommand	C:/Program Files/Eggplant/Eggplant.app/Resources/EggplantCommon.suite/Scripts/Omega13.script
2021-08-13 15:00:05.689 -0500	waitfor	ChromeHasLoaded	found at (81, 55)	1	on_overridecommand	C:/Program Files/Eggplant/Eggplant.app/Resources/EggplantCommon.suite/Scripts/Omega13.script
2021-08-13 15:00:21.810 -0500	Log		Navigator	1	on_navigator	Navigator.script
2021-08-13 15:00:21.942 -0500	click		at (38, 87)	1	on_overridecommand	C:/Program Files/Eggplant/Eggplant.app/Resources/EggplantCommon.suite/Scripts/Omega13.script
2021-08-13 15:00:28.973 -0500	Log		This is the row that I see Pavement Express (26_module),Analysis (26_analysis),Network Analysis (26_network_analysis),Network Master (26_network_master),	7	on_navigator	Navigator.script
2021-08-13 15:00:28.978 -0500	Log		This is each item in the row	9	on_navigator	Navigator.script
2021-08-13 15:00:28.983 -0500	LogWarning		Each Item is Pavement Express	13	on_navigator	Navigator.script
2021-08-13 15:00:28.990 -0500	LogWarning		Each Item is Analysis	13	on_navigator	Navigator.script
2021-08-13 15:00:28.996 -0500	LogWarning		Each Item is Network Analysis	13	on_navigator	Navigator.script
2021-08-13 15:00:29.001 -0500	LogWarning		Each Item is Network Master	13	on_navigator	Navigator.script
2021-08-13 15:00:29.006 -0500	set		SEARCHRECTANGLE = [5,67,1919,1040]	19	on_navigator	Navigator.script
2021-08-13 15:00:29.010 -0500	Log		I am the First item of the Row. I am the Primary Menu --> Pavement Express	24	on_navigator	Navigator.script
2021-08-13 15:00:34.511 -0500	imagefound	(TEXT:"Pavement Express")	found at (169, 87)	26	on_navigator	Navigator.script
2021-08-13 15:00:34.517 -0500	Log		I found the Primary Menu Item Pavement Express	27	on_navigator	Navigator.script
2021-08-13 15:00:34.923 -0500	waitfor	(TEXT:"Pavement Express")	found at (169, 87)	1	on_overridecommand	C:/Program Files/Eggplant/Eggplant.app/Resources/EggplantCommon.suite/Scripts/Omega13.script
2021-08-13 15:00:35.024 -0500	set		SEARCHRECTANGLE = [[104,57],[1920,1080]]	32	on_navigator	Navigator.script
2021-08-13 15:00:35.028 -0500	set		SEARCHRECTANGLE = [5,67,1919,1040]	19	on_navigator	Navigator.script
2021-08-13 15:00:35.033 -0500	Log		I am NOT the first --> Analysis	49	on_navigator	Navigator.script
2021-08-13 15:00:40.479 -0500	click	(TEXT:"Analysis")	at (532, 88)	1	on_overridecommand	C:/Program Files/Eggplant/Eggplant.app/Resources/EggplantCommon.suite/Scripts/Omega13.script
2021-08-13 15:00:40.511 -0500	set		SEARCHRECTANGLE = [[467,58],[1920,1080]]	53	on_navigator	Navigator.script
2021-08-13 15:00:42.515 -0500	set		SEARCHRECTANGLE = [5,67,1919,1040]	19	on_navigator	Navigator.script
2021-08-13 15:00:42.522 -0500	Log		I am NOT the first --> Network Analysis	49	on_navigator	Navigator.script
2021-08-13 15:00:47.902 -0500	click	(TEXT:"Network Analysis")	at (567, 125)	1	on_overridecommand	C:/Program Files/Eggplant/Eggplant.app/Resources/EggplantCommon.suite/Scripts/Omega13.script
2021-08-13 15:00:47.931 -0500	set		SEARCHRECTANGLE = [[502,95],[1920,1080]]	53	on_navigator	Navigator.script
2021-08-13 15:00:49.946 -0500	set		SEARCHRECTANGLE = [5,67,1919,1040]	19	on_navigator	Navigator.script
2021-08-13 15:00:49.952 -0500	Log		I am NOT the first --> Network Master	49	on_navigator	Navigator.script
2021-08-13 15:00:55.280 -0500	click	(TEXT:"Network Master")	at (733, 132)	1	on_overridecommand	C:/Program Files/Eggplant/Eggplant.app/Resources/EggplantCommon.suite/Scripts/Omega13.script
2021-08-13 15:00:55.311 -0500	set		SEARCHRECTANGLE = [[668,102],[1920,1080]]	53	on_navigator	Navigator.script
2021-08-13 15:00:57.322 -0500	set		SEARCHRECTANGLE = []	62	on_navigator	Navigator.script
2021-08-13 15:01:22.644 -0500	Log		MakeModelandScript	1	on_makemodelandscript	MakeModelAndScript.script
2021-08-13 15:01:23.609 -0500	Log		Wait for Page Loading to complete	3	on_makemodelandscript	MakeModelAndScript.script
2021-08-13 15:01:26.711 -0500	set		SEARCHRECTANGLE = [396,291,1345,802]	7	on_makemodelandscript	MakeModelAndScript.script
2021-08-13 15:01:39.124 -0500	imagefound	(TEXT:"Loading")	Unable to Find Image (TEXT:"Loading"). Text not found.	8	on_makemodelandscript	MakeModelAndScript.script
2021-08-13 15:01:48.396 -0500	set		SEARCHRECTANGLE = []	12	on_makemodelandscript	MakeModelAndScript.script
2021-08-13 15:01:52.101 -0500	waitfor	ActionsMenu	found at (44, 168)	1	on_overridecommand	C:/Program Files/Eggplant/Eggplant.app/Resources/EggplantCommon.suite/Scripts/Omega13.script
2021-08-13 15:01:58.230 -0500	everyimagelocation	ActionsMenu	found 1 images	15	on_makemodelandscript	MakeModelAndScript.script
2021-08-13 15:01:59.527 -0500	Log		[[44,168]]	16	on_makemodelandscript	MakeModelAndScript.script
2021-08-13 15:05:15.452 -0500	Log		The Action menu is 44,168	22	on_makemodelandscript	MakeModelAndScript.script
2021-08-13 15:05:22.912 -0500	Log		MenuScraper	1	on_menuscraper	MenuScraper.script
2021-08-13 15:05:26.979 -0500	readtext		(0,158,14,178)	8	on_menuscraper	MenuScraper.script
2021-08-13 15:05:27.184 -0500	click		at (44, 168)	1	on_overridecommand	C:/Program Files/Eggplant/Eggplant.app/Resources/EggplantCommon.suite/Scripts/Omega13.script
2021-08-13 15:05:27.908 -0500	moveto		at (489, 17)	1	on_overridecommand	C:/Program Files/Eggplant/Eggplant.app/Resources/EggplantCommon.suite/Scripts/Omega13.script
2021-08-13 15:05:27.985 -0500	waitfor	UpperLeftCorner	found at (52, 171)	1	on_overridecommand	C:/Program Files/Eggplant/Eggplant.app/Resources/EggplantCommon.suite/Scripts/Omega13.script
2021-08-13 15:05:33.425 -0500	Exception	BottomRight	Unable To Find Any Image On Screen "BottomRight" within 5.00 seconds	1	on_overridecommand	C:/Program Files/Eggplant/Eggplant.app/Resources/EggplantCommon.suite/Scripts/Omega13.script
2021-08-13 15:05:44.361 -0500	EndTestCase		(Duration:"364.34", Errors:"1", Exceptions:"1", StartTime:"2021-08-13 14:59:40 -0500", Successes:"0", TestCase:"Master.script", Warnings:"4")
2021-08-13 15:05:44.388 -0500	ABORTED		Execution Time 0:06:04 Master.script
